<?xml version="1.0" encoding="UTF-8"?>
<CustomTab xmlns="http://soap.sforce.com/2006/04/metadata">
    <auraComponent>PanelStatystykWrapper</auraComponent>
    <description>Panel do wprowadzania codziennych statystyk dla wstawień</description>
    <label>Wprowadź dane</label>
    <motif>Custom8: Diamond</motif>
</CustomTab>
